,Hashtag,percentage,Total,Nof_Users,Consistency_Score
0,#sayhisname,0.2986321718140744,16157,10922,0.625
1,#whiteprivilege,0.42053688086471075,16838,10530,0.9166666666666666
2,#art,0.6317068832631766,16867,4762,0.8333333333333334
3,#enoughisenough,0.41934536052183113,17017,9050,0.8333333333333334
4,#bidenharris,0.9034744525547446,17125,2093,0.5833333333333334
5,#racist,0.5084309133489462,17080,8811,1.0
6,#justiceforgeorgeflyod,0.11604667282809612,17312,14729,0.08333333333333333
7,#justiceforgeorge,0.16481674181986355,17298,14109,0.16666666666666666
8,#america,0.49859187309615494,17399,8328,1.0
9,#justiceforall,0.8485567417951759,17703,2585,0.8333333333333334
10,#black,0.32641531188746686,17346,10354,1.0
11,#holocaustmemorialday,0.9996671289875173,18025,23,0.5833333333333334
12,#georgefloydwasmurdered,0.20133745993146898,18094,13751,0.125
13,#grenfelltower,0.9931991444084901,18233,159,0.5833333333333334
14,#resist,0.7370796411470086,18169,4019,0.9166666666666666
15,#blacklivesmatteruk,0.3013632200010776,18559,10799,0.7083333333333334
16,#blackexcellence,0.6678128950695322,19775,5109,1.0
17,#protests,0.5008072801996184,20439,10024,0.7916666666666666
18,#abolishthepolice,0.7713451943895322,21246,4575,0.8333333333333334
19,#usa,0.4760980344576559,20605,8497,0.8333333333333334
20,#love,0.4120422272047833,21408,10069,0.9166666666666666
21,#blacktranslivesmatter,0.42096550489910967,22351,11547,0.8333333333333334
22,#equality,0.36983544983008404,22364,12177,0.875
23,#protest,0.38076719109068413,22628,11874,0.75
24,#mlk,0.8709141031812015,22853,3399,0.8333333333333334
25,#coronavirus,0.6006211708645337,23504,9197,0.7916666666666666
26,#vote,0.5217051910317013,23059,10936,0.8333333333333334
27,#justice,0.30335308989928295,24127,15101,0.875
28,#saytheirnames,0.40991704374057314,26520,14191,0.8333333333333334
29,#georgefloydprotests,0.34093356604404174,26929,16450,0.25
30,#antifa,0.625421088854276,27607,9149,0.8333333333333334
31,#trump,0.5114621145230387,30579,13171,1.0
32,#sayhername,0.36455981941309257,31010,17673,1.0
33,#black_lives_matter,0.17616255369853565,31891,22180,0.16666666666666666
34,#acab,0.2723487631643399,36747,21205,0.8333333333333334
35,#blackouttuesday,0.07228819212808539,37475,33478,0.16666666666666666
36,#protests2020,0.3172890733056708,39765,23014,0.4166666666666667
37,#blackhistorymonth,0.5996125688696571,39749,13976,0.9583333333333334
38,#justiceforbreonnataylor,0.3502635478151036,41169,24688,0.6666666666666666
39,#raisethedegree,0.05805856380291281,45523,38638,0.08333333333333333
40,#policebrutality,0.4626518533900945,48155,23073,1.0
41,#blacktwitter,0.6556069342863986,54281,14063,1.0
42,#icantbreathe,0.31789470030888833,57626,34478,0.8333333333333334
43,#nojusticenopeace,0.3355130268068061,58418,32149,0.8333333333333334
44,#covid19,0.5401461052285972,60915,25915,0.9166666666666666
45,#defundthepolice,0.5539008982176727,63793,25519,0.8333333333333334
46,#racism,0.47582591698627297,67531,30858,1.0
47,#breonnataylor,0.3625493971020367,69083,39940,0.8333333333333334
48,#justiceforgeorgefloyd,0.16411754047515,187646,129417,0.5833333333333334
49,#georgefloyd,0.2801150088251493,230591,136765,0.8333333333333334
